; ModuleID = 'probe0.91276a2ec5d810a9-cgu.0'
source_filename = "probe0.91276a2ec5d810a9-cgu.0"
target datalayout = "e-m:o-i64:64-i128:128-n32:64-S128"
target triple = "arm64-apple-macosx11.0.0"

!llvm.module.flags = !{!0}
!llvm.ident = !{!1}

!0 = !{i32 8, !"PIC Level", i32 2}
!1 = !{!"rustc version 1.77.0-nightly (11f32b73e 2024-01-31)"}
